\relax 
\providecommand\zref@newlabel[2]{}
\providecommand\hyper@newdestlabel[2]{}
\providecommand\acro@used@once[4]{}
\providecommand\acro@used@twice[4]{}
\providecommand\acro@pages[2]{}
\providecommand\acro@rerun@check{}
\providecommand\acro@print@list{}
\providecommand\HyperFirstAtBeginDocument{\AtBeginDocument}
\HyperFirstAtBeginDocument{\ifx\hyper@anchor\@undefined
\global\let\oldcontentsline\contentsline
\gdef\contentsline#1#2#3#4{\oldcontentsline{#1}{#2}{#3}}
\global\let\oldnewlabel\newlabel
\gdef\newlabel#1#2{\newlabelxx{#1}#2}
\gdef\newlabelxx#1#2#3#4#5#6{\oldnewlabel{#1}{{#2}{#3}}}
\AtEndDocument{\ifx\hyper@anchor\@undefined
\let\contentsline\oldcontentsline
\let\newlabel\oldnewlabel
\fi}
\fi}
\global\let\hyper@last\relax 
\gdef\HyperFirstAtBeginDocument#1{#1}
\providecommand\HyField@AuxAddToFields[1]{}
\providecommand\HyField@AuxAddToCoFields[2]{}
\@writefile{toc}{\contentsline {chapter}{\numberline {1}Introduction}{1}{chapter.1}}
\@writefile{lof}{\addvspace {10\p@ }}
\@writefile{lot}{\addvspace {10\p@ }}
\@writefile{toc}{\contentsline {section}{\numberline {1.1}Memmory Managment Units}{1}{section.1.1}}
\@writefile{lof}{\contentsline {figure}{\numberline {1.1}{\ignorespaces Compute System with MMU\relax }}{1}{figure.caption.6}}
\providecommand*\caption@xref[2]{\@setref\relax\@undefined{#1}}
\newlabel{fig:abstractmmu}{{1.1}{1}{Compute System with MMU\relax }{figure.caption.6}{}}
\@writefile{toc}{\contentsline {section}{\numberline {1.2}Overview of FPGAs}{2}{section.1.2}}
\@writefile{lof}{\contentsline {figure}{\numberline {1.2}{\ignorespaces Generic FPGA Architecture\relax }}{2}{figure.caption.7}}
\newlabel{fig:vivado}{{1.2}{2}{Generic FPGA Architecture\relax }{figure.caption.7}{}}
\@writefile{lof}{\contentsline {figure}{\numberline {1.3}{\ignorespaces Switch block pins with different switch flexibility.\relax }}{3}{figure.caption.8}}
\newlabel{fig:vivado}{{1.3}{3}{Switch block pins with different switch flexibility.\relax }{figure.caption.8}{}}
\@writefile{toc}{\contentsline {section}{\numberline {1.3}Purpose}{3}{section.1.3}}
\@writefile{toc}{\contentsline {chapter}{\numberline {2}Tools}{4}{chapter.2}}
\@writefile{lof}{\addvspace {10\p@ }}
\@writefile{lot}{\addvspace {10\p@ }}
\@writefile{toc}{\contentsline {section}{\numberline {2.1}Hardware}{4}{section.2.1}}
\@writefile{toc}{\contentsline {subsubsection}{ZedBoard\IeC {\texttrademark }}{4}{section*.9}}
\@writefile{lof}{\contentsline {figure}{\numberline {2.1}{\ignorespaces ZedBoard\IeC {\texttrademark }\relax }}{4}{figure.caption.10}}
\newlabel{fig:zed}{{2.1}{4}{ZedBoard™\relax }{figure.caption.10}{}}
\@writefile{toc}{\contentsline {section}{\numberline {2.2}Software}{5}{section.2.2}}
\@writefile{toc}{\contentsline {subsubsection}{Vivado\IeC {\textregistered }}{5}{section*.11}}
\@writefile{lof}{\contentsline {figure}{\numberline {2.2}{\ignorespaces Vivado Logo\relax }}{5}{figure.caption.12}}
\newlabel{fig:zed}{{2.2}{5}{Vivado Logo\relax }{figure.caption.12}{}}
\@writefile{toc}{\contentsline {subsubsection}{SDK}{5}{section*.13}}
\@writefile{toc}{\contentsline {subsubsection}{AMBA AXI Interface}{5}{section*.14}}
\@writefile{toc}{\contentsline {section}{\numberline {2.3}Used Languages}{6}{section.2.3}}
\@writefile{toc}{\contentsline {subsection}{\numberline {2.3.1}VHDL}{6}{subsection.2.3.1}}
\@writefile{toc}{\contentsline {subsection}{\numberline {2.3.2}TCL}{6}{subsection.2.3.2}}
\@writefile{toc}{\contentsline {chapter}{\numberline {3}Implementation}{7}{chapter.3}}
\@writefile{lof}{\addvspace {10\p@ }}
\@writefile{lot}{\addvspace {10\p@ }}
\@writefile{toc}{\contentsline {section}{\numberline {3.1}RAM}{7}{section.3.1}}
\@writefile{lof}{\contentsline {figure}{\numberline {3.1}{\ignorespaces Abstract MMU Design\relax }}{7}{figure.caption.15}}
\newlabel{fig:mmu}{{3.1}{7}{Abstract MMU Design\relax }{figure.caption.15}{}}
\@writefile{lol}{\contentsline {lstlisting}{\numberline {3.1}RAM VHDL Code}{8}{lstlisting.3.1}}
\@writefile{lof}{\contentsline {figure}{\numberline {3.2}{\ignorespaces Ram Store Procedure\relax }}{9}{figure.caption.16}}
\newlabel{fig:mmu}{{3.2}{9}{Ram Store Procedure\relax }{figure.caption.16}{}}
\@writefile{lof}{\contentsline {figure}{\numberline {3.3}{\ignorespaces Ram Read Procedure\relax }}{9}{figure.caption.17}}
\newlabel{fig:mmu}{{3.3}{9}{Ram Read Procedure\relax }{figure.caption.17}{}}
\@writefile{toc}{\contentsline {section}{\numberline {3.2}MMU Top Level}{9}{section.3.2}}
\@writefile{lol}{\contentsline {lstlisting}{\numberline {3.2}RAMs Port Map in Top Level}{10}{lstlisting.3.2}}
\@writefile{toc}{\contentsline {section}{\numberline {3.3}AXI Interface}{10}{section.3.3}}
\@writefile{lof}{\contentsline {figure}{\numberline {3.4}{\ignorespaces AXI4 Interface Design\relax }}{10}{figure.caption.18}}
\newlabel{fig:abstractip}{{3.4}{10}{AXI4 Interface Design\relax }{figure.caption.18}{}}
\@writefile{toc}{\contentsline {subsection}{\numberline {3.3.1}Slave AXI Interface}{11}{subsection.3.3.1}}
\@writefile{lot}{\contentsline {table}{\numberline {3.1}{\ignorespaces MMU Slave Registers\relax }}{11}{table.caption.19}}
\@writefile{lol}{\contentsline {lstlisting}{\numberline {3.3}Port Map of MMU in Slave Port}{11}{lstlisting.3.3}}
\@writefile{toc}{\contentsline {subsection}{\numberline {3.3.2}Master AXI Interface}{12}{subsection.3.3.2}}
\@writefile{lol}{\contentsline {lstlisting}{\numberline {3.4}Master Port Routing Routine}{12}{lstlisting.3.4}}
\@writefile{toc}{\contentsline {subsection}{\numberline {3.3.3}Complete IP}{13}{subsection.3.3.3}}
\@writefile{lof}{\contentsline {figure}{\numberline {3.5}{\ignorespaces Packaged MMU IP Block\relax }}{13}{figure.caption.20}}
\newlabel{fig:zynq}{{3.5}{13}{Packaged MMU IP Block\relax }{figure.caption.20}{}}
\@writefile{toc}{\contentsline {subsection}{\numberline {3.3.4}IP Modes}{14}{subsection.3.3.4}}
\@writefile{toc}{\contentsline {subsubsection}{Store Mode}{14}{section*.21}}
\@writefile{lof}{\contentsline {figure}{\numberline {3.6}{\ignorespaces Store Mode FSM\relax }}{14}{figure.caption.22}}
\newlabel{fig:smfsm}{{3.6}{14}{Store Mode FSM\relax }{figure.caption.22}{}}
\@writefile{toc}{\contentsline {subsubsection}{Translation Mode}{14}{section*.23}}
\@writefile{lof}{\contentsline {figure}{\numberline {3.7}{\ignorespaces Translation Mode FSM\relax }}{15}{figure.caption.24}}
\newlabel{fig:tmfsm}{{3.7}{15}{Translation Mode FSM\relax }{figure.caption.24}{}}
\@writefile{toc}{\contentsline {section}{\numberline {3.4}Design}{16}{section.3.4}}
\@writefile{toc}{\contentsline {subsection}{\numberline {3.4.1}PS}{16}{subsection.3.4.1}}
\@writefile{lof}{\contentsline {figure}{\numberline {3.8}{\ignorespaces Zynq Processing System\relax }}{16}{figure.caption.25}}
\newlabel{fig:zynq}{{3.8}{16}{Zynq Processing System\relax }{figure.caption.25}{}}
\@writefile{toc}{\contentsline {subsection}{\numberline {3.4.2}Targets}{17}{subsection.3.4.2}}
\@writefile{lof}{\contentsline {figure}{\numberline {3.9}{\ignorespaces Targets\relax }}{17}{figure.caption.26}}
\newlabel{fig:targets}{{3.9}{17}{Targets\relax }{figure.caption.26}{}}
\@writefile{lof}{\contentsline {figure}{\numberline {3.10}{\ignorespaces AXI BRAM Controller\relax }}{17}{figure.caption.27}}
\newlabel{fig:bramctrl}{{3.10}{17}{AXI BRAM Controller\relax }{figure.caption.27}{}}
\@writefile{toc}{\contentsline {subsection}{\numberline {3.4.3}AXI Interconnects}{18}{subsection.3.4.3}}
\@writefile{lof}{\contentsline {figure}{\numberline {3.11}{\ignorespaces Interconnect\relax }}{18}{figure.caption.28}}
\newlabel{fig:Interconnect}{{3.11}{18}{Interconnect\relax }{figure.caption.28}{}}
\@writefile{toc}{\contentsline {subsection}{\numberline {3.4.4}Complete Design}{19}{subsection.3.4.4}}
\@writefile{lof}{\contentsline {figure}{\numberline {3.12}{\ignorespaces Complete Design\relax }}{19}{figure.caption.29}}
\newlabel{fig:design}{{3.12}{19}{Complete Design\relax }{figure.caption.29}{}}
\@writefile{toc}{\contentsline {chapter}{\numberline {4}Testing}{20}{chapter.4}}
\@writefile{lof}{\addvspace {10\p@ }}
\@writefile{lot}{\addvspace {10\p@ }}
\@writefile{toc}{\contentsline {section}{\numberline {4.1}Ram Testing}{20}{section.4.1}}
\@writefile{toc}{\contentsline {subsection}{\numberline {4.1.1}TestBench}{20}{subsection.4.1.1}}
\@writefile{lol}{\contentsline {lstlisting}{\numberline {4.1}RAM Test Bench}{20}{lstlisting.4.1}}
\@writefile{toc}{\contentsline {subsection}{\numberline {4.1.2}Results}{21}{subsection.4.1.2}}
\@writefile{lof}{\contentsline {figure}{\numberline {4.1}{\ignorespaces RAM Write Simulation\relax }}{21}{figure.caption.30}}
\newlabel{fig:ramwritesim}{{4.1}{21}{RAM Write Simulation\relax }{figure.caption.30}{}}
\@writefile{lof}{\contentsline {figure}{\numberline {4.2}{\ignorespaces RAM Read Simulation\relax }}{22}{figure.caption.31}}
\newlabel{fig:ramreadsim}{{4.2}{22}{RAM Read Simulation\relax }{figure.caption.31}{}}
\@writefile{lof}{\contentsline {figure}{\numberline {4.3}{\ignorespaces RAM Write Fail\relax }}{22}{figure.caption.32}}
\newlabel{fig:ramwritefailsim}{{4.3}{22}{RAM Write Fail\relax }{figure.caption.32}{}}
\@writefile{toc}{\contentsline {section}{\numberline {4.2}Top Level Testing}{23}{section.4.2}}
\@writefile{toc}{\contentsline {subsection}{\numberline {4.2.1}TestBench}{23}{subsection.4.2.1}}
\@writefile{lol}{\contentsline {lstlisting}{\numberline {4.2}Top Level Simulation Code}{23}{lstlisting.4.2}}
\@writefile{toc}{\contentsline {subsection}{\numberline {4.2.2}Results}{24}{subsection.4.2.2}}
\@writefile{lof}{\contentsline {figure}{\numberline {4.4}{\ignorespaces Top Level Storing\relax }}{24}{figure.caption.33}}
\newlabel{fig:topstore}{{4.4}{24}{Top Level Storing\relax }{figure.caption.33}{}}
\@writefile{lof}{\contentsline {figure}{\numberline {4.5}{\ignorespaces Top Level Translating\relax }}{24}{figure.caption.34}}
\newlabel{fig:toptrans}{{4.5}{24}{Top Level Translating\relax }{figure.caption.34}{}}
\@writefile{toc}{\contentsline {section}{\numberline {4.3}IP Testing}{25}{section.4.3}}
\@writefile{lof}{\contentsline {figure}{\numberline {4.6}{\ignorespaces Synthesized Design with ILA core\relax }}{25}{figure.caption.35}}
\newlabel{fig:synthdesila}{{4.6}{25}{Synthesized Design with ILA core\relax }{figure.caption.35}{}}
\@writefile{lot}{\contentsline {table}{\numberline {4.1}{\ignorespaces MMU AXI Signals\relax }}{26}{table.caption.36}}
\@writefile{toc}{\contentsline {subsection}{\numberline {4.3.1}Testing Methodology}{27}{subsection.4.3.1}}
\@writefile{toc}{\contentsline {subsubsection}{Testing Scripts}{27}{section*.37}}
\@writefile{lot}{\contentsline {table}{\numberline {4.2}{\ignorespaces Testing Translations\relax }}{27}{table.caption.38}}
\@writefile{lot}{\contentsline {table}{\numberline {4.3}{\ignorespaces Testing Stored Data Addresses\relax }}{27}{table.caption.39}}
\@writefile{lof}{\contentsline {figure}{\numberline {4.7}{\ignorespaces ILA Monitoring of Writes A\relax }}{28}{figure.caption.40}}
\newlabel{fig:zed}{{4.7}{28}{ILA Monitoring of Writes A\relax }{figure.caption.40}{}}
\@writefile{lof}{\contentsline {figure}{\numberline {4.8}{\ignorespaces ILA Monitoring of Writes B\relax }}{28}{figure.caption.41}}
\newlabel{fig:zed}{{4.8}{28}{ILA Monitoring of Writes B\relax }{figure.caption.41}{}}
\@writefile{toc}{\contentsline {chapter}{\numberline {5}Conclusions}{30}{chapter.5}}
\@writefile{lof}{\addvspace {10\p@ }}
\@writefile{lot}{\addvspace {10\p@ }}
\@writefile{toc}{\contentsline {section}{\numberline {5.1}Future Work}{30}{section.5.1}}
\@writefile{toc}{\contentsline {chapter}{\numberline {A}Abbreviations}{31}{appendix.A}}
\@writefile{lof}{\addvspace {10\p@ }}
\@writefile{lot}{\addvspace {10\p@ }}
\@writefile{toc}{\contentsline {chapter}{\numberline {B}.tcl Scripts}{33}{appendix.B}}
\@writefile{lof}{\addvspace {10\p@ }}
\@writefile{lot}{\addvspace {10\p@ }}
\@writefile{toc}{\contentsline {section}{\numberline {B.1}test.tcl}{33}{section.B.1}}
\@writefile{toc}{\contentsline {section}{\numberline {B.2}call.tcl}{34}{section.B.2}}
\@writefile{toc}{\contentsline {section}{\numberline {B.3}store.tcl}{34}{section.B.3}}
\bibcite{axireferenceguide}{1}
\bibcite{axireferenceguide}{2}
\bibcite{axireferenceguide}{3}
\bibcite{axireferenceguide}{4}
\bibcite{axireferenceguide}{5}
\bibcite{axireferenceguide}{6}
\bibcite{axireferenceguide}{7}
\bibcite{axireferenceguide}{8}
\bibcite{axireferenceguide}{9}
\bibcite{axireferenceguide}{10}
\bibcite{axireferenceguide}{11}
\bibcite{axireferenceguide}{12}
\bibcite{axireferenceguide}{13}
\bibcite{axireferenceguide}{14}
\bibcite{axireferenceguide}{15}
\bibcite{axireferenceguide}{16}
\bibcite{axireferenceguide}{17}
\bibcite{axireferenceguide}{18}
\bibcite{axireferenceguide}{19}
\bibcite{axireferenceguide}{20}
\bibcite{axireferenceguide}{21}
\bibcite{axireferenceguide}{22}
\bibcite{axireferenceguide}{23}
\bibcite{axireferenceguide}{24}
\bibcite{axireferenceguide}{25}
\bibcite{axireferenceguide}{26}
\bibcite{axireferenceguide}{27}
\bibcite{axireferenceguide}{28}
\bibcite{axireferenceguide}{29}
\bibcite{axireferenceguide}{30}
\bibcite{axireferenceguide}{31}
\bibcite{axireferenceguide}{32}
\@writefile{toc}{\contentsline {subsubsection}{Copyrights}{38}{section*.43}}
\acro@rerun@check 
