\BOOKMARK [0][-]{chapter.1}{Introduction}{}% 1
\BOOKMARK [1][-]{section.1.1}{Memmory Managment Units}{chapter.1}% 2
\BOOKMARK [1][-]{section.1.2}{Overview of FPGAs}{chapter.1}% 3
\BOOKMARK [1][-]{section.1.3}{Purpose}{chapter.1}% 4
\BOOKMARK [0][-]{chapter.2}{Tools}{}% 5
\BOOKMARK [1][-]{section.2.1}{Hardware}{chapter.2}% 6
\BOOKMARK [1][-]{section.2.2}{Software}{chapter.2}% 7
\BOOKMARK [1][-]{section.2.3}{Used Languages}{chapter.2}% 8
\BOOKMARK [2][-]{subsection.2.3.1}{VHDL}{section.2.3}% 9
\BOOKMARK [2][-]{subsection.2.3.2}{TCL}{section.2.3}% 10
\BOOKMARK [0][-]{chapter.3}{Implementation}{}% 11
\BOOKMARK [1][-]{section.3.1}{RAM}{chapter.3}% 12
\BOOKMARK [1][-]{section.3.2}{MMU Top Level}{chapter.3}% 13
\BOOKMARK [1][-]{section.3.3}{AXI Interface}{chapter.3}% 14
\BOOKMARK [2][-]{subsection.3.3.1}{Slave AXI Interface}{section.3.3}% 15
\BOOKMARK [2][-]{subsection.3.3.2}{Master AXI Interface}{section.3.3}% 16
\BOOKMARK [2][-]{subsection.3.3.3}{Complete IP}{section.3.3}% 17
\BOOKMARK [2][-]{subsection.3.3.4}{IP Modes}{section.3.3}% 18
\BOOKMARK [1][-]{section.3.4}{Design}{chapter.3}% 19
\BOOKMARK [2][-]{subsection.3.4.1}{PS}{section.3.4}% 20
\BOOKMARK [2][-]{subsection.3.4.2}{Targets}{section.3.4}% 21
\BOOKMARK [2][-]{subsection.3.4.3}{AXI Interconnects}{section.3.4}% 22
\BOOKMARK [2][-]{subsection.3.4.4}{Complete Design}{section.3.4}% 23
\BOOKMARK [0][-]{chapter.4}{Testing}{}% 24
\BOOKMARK [1][-]{section.4.1}{Ram Testing}{chapter.4}% 25
\BOOKMARK [2][-]{subsection.4.1.1}{TestBench}{section.4.1}% 26
\BOOKMARK [2][-]{subsection.4.1.2}{Results}{section.4.1}% 27
\BOOKMARK [1][-]{section.4.2}{Top Level Testing}{chapter.4}% 28
\BOOKMARK [2][-]{subsection.4.2.1}{TestBench}{section.4.2}% 29
\BOOKMARK [2][-]{subsection.4.2.2}{Results}{section.4.2}% 30
\BOOKMARK [1][-]{section.4.3}{IP Testing}{chapter.4}% 31
\BOOKMARK [2][-]{subsection.4.3.1}{Testing Methodology}{section.4.3}% 32
\BOOKMARK [0][-]{chapter.5}{Conclusions}{}% 33
\BOOKMARK [1][-]{section.5.1}{Future Work}{chapter.5}% 34
\BOOKMARK [0][-]{appendix.A}{Abbreviations}{}% 35
\BOOKMARK [0][-]{appendix.B}{.tcl Scripts}{}% 36
\BOOKMARK [1][-]{section.B.1}{test.tcl}{appendix.B}% 37
\BOOKMARK [1][-]{section.B.2}{call.tcl}{appendix.B}% 38
\BOOKMARK [1][-]{section.B.3}{store.tcl}{appendix.B}% 39
