\relax 
\@writefile{toc}{\contentsline {chapter}{\numberline {1}Design Setup}{5}}
\@writefile{lof}{\addvspace {10\p@ }}
\@writefile{lot}{\addvspace {10\p@ }}
\@writefile{toc}{\contentsline {section}{\numberline {1.1}File Acquisition}{5}}
\@writefile{lof}{\contentsline {figure}{\numberline {1.1}{\ignorespaces Design Download}}{5}}
\newlabel{fig:design}{{1.1}{5}}
\@writefile{toc}{\contentsline {section}{\numberline {1.2}Files}{5}}
\@writefile{lof}{\contentsline {figure}{\numberline {1.2}{\ignorespaces Vivado Starting Screen}}{6}}
\newlabel{fig:vivado}{{1.2}{6}}
\@writefile{lof}{\contentsline {figure}{\numberline {1.3}{\ignorespaces Design Diagram}}{6}}
\newlabel{fig:design}{{1.3}{6}}
\@writefile{toc}{\contentsline {subsection}{\numberline {1.2.1}Design Diagram}{6}}
\@writefile{toc}{\contentsline {subsection}{\numberline {1.2.2}Address Editor}{7}}
\@writefile{lof}{\contentsline {figure}{\numberline {1.4}{\ignorespaces Address Editor}}{7}}
\newlabel{fig:vivado}{{1.4}{7}}
\@writefile{toc}{\contentsline {subsubsection}{MMU Addressing}{7}}
\@writefile{toc}{\contentsline {subsubsection}{Memory Block Addressing}{7}}
\@writefile{toc}{\contentsline {section}{\numberline {1.3}Running Design}{8}}
\@writefile{toc}{\contentsline {subsection}{\numberline {1.3.1}Exporting}{8}}
\@writefile{toc}{\contentsline {subsection}{\numberline {1.3.2}SDK}{8}}
\@writefile{toc}{\contentsline {subsubsection}{Programming FPGA}{8}}
\@writefile{lof}{\contentsline {figure}{\numberline {1.5}{\ignorespaces SDK Starting Screen}}{8}}
\newlabel{fig:vivado}{{1.5}{8}}
\@writefile{toc}{\contentsline {subsubsection}{Initialising}{8}}
\@writefile{lof}{\contentsline {figure}{\numberline {1.6}{\ignorespaces Run Configuration Window}}{9}}
\newlabel{fig:vivado}{{1.6}{9}}
\@writefile{toc}{\contentsline {chapter}{\numberline {2}Design Run}{10}}
\@writefile{lof}{\addvspace {10\p@ }}
\@writefile{lot}{\addvspace {10\p@ }}
\@writefile{toc}{\contentsline {section}{\numberline {2.1}XMD}{10}}
\@writefile{lof}{\contentsline {figure}{\numberline {2.1}{\ignorespaces SDK With XMD Console}}{10}}
\newlabel{fig:vivado}{{2.1}{10}}
\@writefile{toc}{\contentsline {section}{\numberline {2.2}MMU Functional Specification}{11}}
\@writefile{lof}{\contentsline {figure}{\numberline {2.2}{\ignorespaces Zynq Communication with MMU}}{11}}
\newlabel{fig:mmu}{{2.2}{11}}
\@writefile{lof}{\contentsline {figure}{\numberline {2.3}{\ignorespaces Translate Mode Procedure}}{11}}
\newlabel{fig:mmu}{{2.3}{11}}
\@writefile{lof}{\contentsline {figure}{\numberline {2.4}{\ignorespaces Store Mode Procedure}}{11}}
\newlabel{fig:mmu}{{2.4}{11}}
\@writefile{lof}{\contentsline {figure}{\numberline {2.5}{\ignorespaces MMU Modes FSM}}{12}}
\newlabel{fig:mmu}{{2.5}{12}}
\@writefile{toc}{\contentsline {subsection}{\numberline {2.2.1}Slave Registers}{12}}
\@writefile{lot}{\contentsline {table}{\numberline {2.1}{\ignorespaces MMU Slave Registers}}{12}}
\@writefile{toc}{\contentsline {subsubsection}{Register 1}{12}}
\@writefile{toc}{\contentsline {subsubsection}{Register 2}{12}}
\@writefile{toc}{\contentsline {subsubsection}{Register 3}{12}}
\@writefile{toc}{\contentsline {subsubsection}{Register 4}{12}}
\@writefile{toc}{\contentsline {subsection}{\numberline {2.2.2}Simple Example}{13}}
\@writefile{toc}{\contentsline {subsubsection}{Store Mode}{13}}
\@writefile{lot}{\contentsline {table}{\numberline {2.2}{\ignorespaces Target Addressing}}{13}}
\@writefile{toc}{\contentsline {subsubsection}{Translation Mode}{13}}
\@writefile{lof}{\contentsline {figure}{\numberline {2.6}{\ignorespaces Translation Example}}{14}}
\newlabel{fig:vivado}{{2.6}{14}}
\@writefile{toc}{\contentsline {subsection}{\numberline {2.2.3}Multi-Target Example}{14}}
\@writefile{toc}{\contentsline {subsubsection}{Store Mode}{14}}
\@writefile{lot}{\contentsline {table}{\numberline {2.3}{\ignorespaces Target Addressing}}{14}}
\@writefile{toc}{\contentsline {subsubsection}{Translation Mode}{15}}
\@writefile{lot}{\contentsline {table}{\numberline {2.4}{\ignorespaces Storing Addressing Example}}{15}}
\@writefile{lof}{\contentsline {figure}{\numberline {2.7}{\ignorespaces Example Memory Read Fail}}{16}}
\newlabel{fig:sdk}{{2.7}{16}}
\@writefile{lot}{\contentsline {table}{\numberline {2.5}{\ignorespaces Storing Addressing Example}}{16}}
\@writefile{lof}{\contentsline {figure}{\numberline {2.8}{\ignorespaces Example Memory Read}}{17}}
\newlabel{fig:sdk}{{2.8}{17}}
\@writefile{toc}{\contentsline {chapter}{\numberline {3}Conclusion}{18}}
\@writefile{lof}{\addvspace {10\p@ }}
\@writefile{lot}{\addvspace {10\p@ }}
