\relax 
\@writefile{toc}{\contentsline {section}{\numberline {I}Introduction}{1}}
\@writefile{toc}{\contentsline {subsection}{\numberline {\unhbox \voidb@x \hbox {I-A}}Implementation}{1}}
\@writefile{toc}{\contentsline {subsubsection}{\numberline {\unhbox \voidb@x \hbox {I-A}1}RAM}{1}}
\@writefile{toc}{\contentsline {subsubsection}{\numberline {\unhbox \voidb@x \hbox {I-A}2}MMU Top Level}{1}}
\@writefile{toc}{\contentsline {subsubsection}{\numberline {\unhbox \voidb@x \hbox {I-A}3}AXI Interface}{1}}
\@writefile{toc}{\contentsline {subsection}{\numberline {\unhbox \voidb@x \hbox {I-B}}Slave AXI Interface}{1}}
\@writefile{lot}{\contentsline {table}{\numberline {I}{\ignorespaces MMU Slave Registers}}{1}}
\@writefile{toc}{\contentsline {subsection}{\numberline {\unhbox \voidb@x \hbox {I-C}}Master AXI Interface}{2}}
\@writefile{toc}{\contentsline {subsection}{\numberline {\unhbox \voidb@x \hbox {I-D}}Complete IP}{2}}
\@writefile{toc}{\contentsline {subsection}{\numberline {\unhbox \voidb@x \hbox {I-E}}IP Modes}{2}}
\@writefile{toc}{\contentsline {subsubsection}{\numberline {\unhbox \voidb@x \hbox {I-E}1}Store Mode}{2}}
\@writefile{toc}{\contentsline {subsubsection}{\numberline {\unhbox \voidb@x \hbox {I-E}2}Translation Mode}{2}}
\@writefile{lof}{\contentsline {figure}{\numberline {1}{\ignorespaces Store Mode FSM}}{2}}
\newlabel{fig:mmu}{{1}{2}}
\@writefile{lof}{\contentsline {figure}{\numberline {2}{\ignorespaces Translation Mode FSM}}{2}}
\newlabel{fig:mmu}{{2}{2}}
\@writefile{toc}{\contentsline {subsection}{\numberline {\unhbox \voidb@x \hbox {I-F}}Design}{2}}
\@writefile{toc}{\contentsline {subsection}{\numberline {\unhbox \voidb@x \hbox {I-G}}Complete Design}{2}}
\@writefile{toc}{\contentsline {section}{\numberline {II}Testing}{2}}
\@writefile{toc}{\contentsline {subsection}{\numberline {\unhbox \voidb@x \hbox {II-A}}Ram Testing}{3}}
\@writefile{toc}{\contentsline {subsubsection}{\numberline {\unhbox \voidb@x \hbox {II-A}1}Results}{3}}
\@writefile{toc}{\contentsline {subsection}{\numberline {\unhbox \voidb@x \hbox {II-B}}Top Level Testing}{3}}
\@writefile{toc}{\contentsline {subsubsection}{\numberline {\unhbox \voidb@x \hbox {II-B}1}TestBench}{3}}
\@writefile{toc}{\contentsline {subsubsection}{\numberline {\unhbox \voidb@x \hbox {II-B}2}Results}{3}}
\@writefile{toc}{\contentsline {subsection}{\numberline {\unhbox \voidb@x \hbox {II-C}}IP Testing}{3}}
\@writefile{toc}{\contentsline {subsection}{\numberline {\unhbox \voidb@x \hbox {II-D}}Testing Methodology}{3}}
\@writefile{toc}{\contentsline {subsubsection}{\numberline {\unhbox \voidb@x \hbox {II-D}1}Testing Scripts}{3}}
\@writefile{lot}{\contentsline {table}{\numberline {II}{\ignorespaces Testing Translations}}{3}}
\@writefile{lot}{\contentsline {table}{\numberline {III}{\ignorespaces Testing Stored Data Addresses}}{3}}
\@writefile{lof}{\contentsline {figure}{\numberline {3}{\ignorespaces Monitoring Results}}{3}}
\newlabel{fig:mmu}{{3}{3}}
\@writefile{toc}{\contentsline {section}{\numberline {III}Conclusions}{4}}
\@writefile{toc}{\contentsline {subsection}{\numberline {\unhbox \voidb@x \hbox {III-A}}Future Work}{4}}
\@writefile{toc}{\contentsline {section}{Appendix\nobreakspace  A: Abbreviations}{4}}
\@writefile{toc}{\contentsline {section}{Appendix\nobreakspace  B: .tcl Scripts}{4}}
\bibcite{axireferenceguide}{1}
\bibcite{axireferenceguide}{2}
\bibcite{axireferenceguide}{3}
\bibcite{axireferenceguide}{4}
\bibcite{axireferenceguide}{5}
\bibcite{axireferenceguide}{6}
\bibcite{axireferenceguide}{7}
\bibcite{axireferenceguide}{8}
\bibcite{axireferenceguide}{9}
\bibcite{axireferenceguide}{10}
\bibcite{axireferenceguide}{11}
\bibcite{axireferenceguide}{12}
\bibcite{axireferenceguide}{13}
\bibcite{axireferenceguide}{14}
\bibcite{axireferenceguide}{15}
\bibcite{axireferenceguide}{16}
\bibcite{axireferenceguide}{17}
\bibcite{axireferenceguide}{18}
\bibcite{axireferenceguide}{19}
\bibcite{axireferenceguide}{20}
\bibcite{axireferenceguide}{21}
\bibcite{axireferenceguide}{22}
\bibcite{axireferenceguide}{23}
\bibcite{axireferenceguide}{24}
\bibcite{axireferenceguide}{25}
\bibcite{axireferenceguide}{26}
\bibcite{axireferenceguide}{27}
\bibcite{axireferenceguide}{28}
\bibcite{axireferenceguide}{29}
\bibcite{axireferenceguide}{30}
\bibcite{axireferenceguide}{31}
\bibcite{axireferenceguide}{32}
\@writefile{toc}{\contentsline {section}{References}{5}}
